/home/sis/catkin_ws/src/peak-linux-driver-8.10.0/driver/pcan.ko
/home/sis/catkin_ws/src/peak-linux-driver-8.10.0/driver/src/pcan_main.o /home/sis/catkin_ws/src/peak-linux-driver-8.10.0/driver/src/pcan_fops.o /home/sis/catkin_ws/src/peak-linux-driver-8.10.0/driver/src/pcan_fifo.o /home/sis/catkin_ws/src/peak-linux-driver-8.10.0/driver/src/pcan_filter.o /home/sis/catkin_ws/src/peak-linux-driver-8.10.0/driver/src/pcan_parse.o /home/sis/catkin_ws/src/peak-linux-driver-8.10.0/driver/src/pcan_sja1000.o /home/sis/catkin_ws/src/peak-linux-driver-8.10.0/driver/src/pcan_common.o /home/sis/catkin_ws/src/peak-linux-driver-8.10.0/driver/src/pcan_timing.o /home/sis/catkin_ws/src/peak-linux-driver-8.10.0/driver/src/pcanfd_core.o /home/sis/catkin_ws/src/peak-linux-driver-8.10.0/driver/src/pcanfd_ucan.o /home/sis/catkin_ws/src/peak-linux-driver-8.10.0/driver/src/pcan_usb_core.o /home/sis/catkin_ws/src/peak-linux-driver-8.10.0/driver/src/pcan_usb.o /home/sis/catkin_ws/src/peak-linux-driver-8.10.0/driver/src/pcan_usbpro.o /home/sis/catkin_ws/src/peak-linux-driver-8.10.0/driver/src/pcanfd_usb.o /home/sis/catkin_ws/src/peak-linux-driver-8.10.0/driver/src/pcan_pci.o /home/sis/catkin_ws/src/peak-linux-driver-8.10.0/driver/src/pcanfd_pci.o /home/sis/catkin_ws/src/peak-linux-driver-8.10.0/driver/src/pcan_pci_spi.o /home/sis/catkin_ws/src/peak-linux-driver-8.10.0/driver/src/pcan_pciec.o /home/sis/catkin_ws/src/peak-linux-driver-8.10.0/driver/src/pcan_isa.o /home/sis/catkin_ws/src/peak-linux-driver-8.10.0/driver/src/pcan_dongle.o /home/sis/catkin_ws/src/peak-linux-driver-8.10.0/driver/src/pcan_pccard_core.o /home/sis/catkin_ws/src/peak-linux-driver-8.10.0/driver/src/pcan_pccard.o

