<?xml version="1.0"?>
<robot name="physics">

<material name="red">
    <color rgba="1 0 0 1"/>
  </material>
<material name="blue">
    <color rgba="0 0 0.8 1"/>
  </material>
<material name="green">
    <color rgba="0 1 0 1"/>
  </material>
<material name="yellow">
    <color rgba="0.8 0.8 0 1"/>
  </material>
<material name="gray">
    <color rgba="0.8 0.8 0.8 0.8"/>
  </material>
  <material name="black">
    <color rgba="0 0 0 1"/>
  </material>
  <material name="white">
    <color rgba="1 1 1 1"/>
  </material>

<!--link name="base_footprint"/>

<joint name="base_joint" type="fixed">
  <parent link="base_footprint"/>
  <child link="base_link"/>
  <origin xyz="0.0 0.0 0.010" rpy="0 0 0"/>
</joint-->

<!--AGV base -->
  <link name="base_link">
    <visual>
      <geometry>
        <box size="1.59 1.035 0.75"/>
      </geometry>
      <material name="blue"/>
    </visual>
    <collision>
      <geometry>
        <box size="1.59 1.035 0.75"/>
      </geometry>
    </collision>
    <inertial>
      <mass value="10"/>
      <inertia ixx="1.0" ixy="0.0" ixz="0.0" iyy="1.0" iyz="0.0" izz="1.0"/>
    </inertial>
  </link>

<!-- right front wheel -->
  <link name="right_front_wheel">
    <visual>
       <origin rpy="1.57075 0 0" xyz="0 0 0"/>
      <geometry>
        <cylinder length="0.14" radius="0.125"/>
      </geometry>
      <material name="black"/>
    </visual>
    <collision>
       <origin rpy="1.57075 0 0" xyz="0 0 0"/>
      <geometry>
        <cylinder length="0.14" radius="0.125"/>
      </geometry>
    </collision>
    <inertial>
      <mass value="1"/>
      <inertia ixx="1.0" ixy="0.0" ixz="0.0" iyy="1.0" iyz="0.0" izz="1.0"/>
    </inertial>
  </link>

  <joint name="right_front_wheel_joint" type="continuous">
    <axis rpy="0 0 0" xyz="0 1 0"/>
    <parent link="base_link"/>
    <child link="right_front_wheel"/>
    <origin rpy="0 0 0" xyz="0.5 -0.375 -0.2275"/>
  </joint>

<!-- left front wheel -->
  <link name="left_front_wheel">
    <visual>
       <origin rpy="1.57075 0 0" xyz="0 0 0"/>
      <geometry>
        <cylinder length="0.14" radius="0.125"/>
      </geometry>
      <material name="black"/>
    </visual>
    <collision>
       <origin rpy="1.57075 0 0" xyz="0 0 0"/>
      <geometry>
        <cylinder length="0.14" radius="0.125"/>
      </geometry>
    </collision>
    <inertial>
      <mass value="1"/>
      <inertia ixx="1.0" ixy="0.0" ixz="0.0" iyy="1.0" iyz="0.0" izz="1.0"/>
    </inertial>
  </link>

  <joint name="left_front_wheel_joint" type="continuous">
    <axis rpy="0 0 0" xyz="0 1 0"/>
    <parent link="base_link"/>
    <child link="left_front_wheel"/>
    <origin rpy="0 0 0" xyz="0.5 0.375 -0.2275"/>
  </joint>

<!-- right left wheel -->
  <link name="right_back_wheel">
    <visual>
       <origin rpy="1.57075 0 0" xyz="0 0 0"/>
      <geometry>
        <cylinder length="0.14" radius="0.125"/>
      </geometry>
      <material name="black"/>
    </visual>
    <collision>
       <origin rpy="1.57075 0 0" xyz="0 0 0"/>
      <geometry>
        <cylinder length="0.14" radius="0.125"/>
      </geometry>
    </collision>
    <inertial>
      <mass value="1"/>
      <inertia ixx="1.0" ixy="0.0" ixz="0.0" iyy="1.0" iyz="0.0" izz="1.0"/>
    </inertial>
  </link>

  <joint name="right_back_wheel_joint" type="continuous">
    <axis rpy="0 0 0" xyz="0 1 0"/>
    <parent link="base_link"/>
    <child link="right_back_wheel"/>
    <origin rpy="0 0 0" xyz="-0.5 -0.375 -0.2275"/>
  </joint>

<!-- left back wheel -->
  <link name="left_back_wheel">
    <visual>
       <origin rpy="1.57075 0 0" xyz="0 0 0"/>
      <geometry>
        <cylinder length="0.14" radius="0.125"/>
      </geometry>
      <material name="black"/>
    </visual>
    <collision>
       <origin rpy="1.57075 0 0" xyz="0 0 0"/>
      <geometry>
        <cylinder length="0.14" radius="0.125"/>
      </geometry>
    </collision>
    <inertial>
      <mass value="1"/>
      <inertia ixx="1.0" ixy="0.0" ixz="0.0" iyy="1.0" iyz="0.0" izz="1.0"/>
    </inertial>
  </link>

  <joint name="left_back_wheel_joint" type="continuous">
    <axis rpy="0 0 0" xyz="0 1 0"/>
    <parent link="base_link"/>
    <child link="left_back_wheel"/>
    <origin rpy="0 0 0" xyz="-0.5 0.375 -0.2275"/>
  </joint>

<!-- Front SICK sensor -->
<joint name="sick_front" type="fixed">
    <origin xyz="0.7596 -0.5221 -0.1675" rpy="0 0 -0.785398" />
    <parent link="base_link" />
    <child link="front_base_laser_link" />
  </joint>

  <link name="front_base_laser_link">
    <visual>
      <geometry>
        <box size="0.00 0.05 0.06" />
      </geometry>
      <material name="Green" />
    </visual>
    <inertial>
      <mass value="0.000001" />
      <origin xyz="0 0 0" />
      <inertia ixx="0.0001" ixy="0.0" ixz="0.0"
        iyy="0.0001" iyz="0.0"
        izz="0.0001" />
    </inertial>
  </link>
</robot>
